{
    "_id":"c-26",
    "_parentId":"b-25",
    "_type":"component",
    "_component":"hotgrid",
    "_classes":"",
    "_layout":"full",
    "title":"Instagram community and engagement",
    "displayTitle":"",
    "body":"",
    "instruction":"",
    "_pageLevelProgress": {
        "_isEnabled": true
        },
    "_columns":4,
    "_items": [
        {
            "title": "Incredible engagement",
            "body": "When it comes to content production, people contribute over 95 million photos and videos everyday.<br><br><cite>Instagram Internal Data, Nov 2016</cite>",
            "itemAria": "Item 1. Select here to open.",
            "_graphic": {
                "src": "course/en/images/01_instagram_community/stockphoto_49928534.png",
                "srcHover":"course/en/images/01_instagram_community/stockphoto_49928534.png",
                "srcVisited":"course/en/images/01_instagram_community/stockphoto_49928534.png",
                "alt": "",
                "title": ""
            },
             "_itemGraphic": {
                "src": "course/en/images/01_instagram_community/stockphoto_49928534.png",
                "alt": "alt text"
            }
        },
        {
            "title": "Growing community",
            "body": "The Instagram community now has over 600 million monthly active users with over 400 million of those Instagrammers visiting the app every single day.<br><br><cite>Instagram Internal Data, Feb 2017</cite>",
            "itemAria": "Item 2. Select here to open.",
            "_graphic": {
                "src": "course/en/images/01_instagram_community/Introduction.png",
                "srcHover":"course/en/images/01_instagram_community/Introduction.png",
                "srcVisited":"course/en/images/01_instagram_community/Introduction.png",
                "alt": "",
                "title": ""
            },
             "_itemGraphic": {
                "src": "course/en/images/01_instagram_community/Introduction.png",
                "alt": "course/en/images/01_instagram_community/Introduction.png"
            }
        },
        {
            "title": "Growth in video",
            "body": "150% increase in time spent watching video on Instagram in past six months.<br><br><cite>Instagram Internal Data, US, June 2016</cite>",
            "itemAria": "Item 3. Select here to open.",
            "_graphic": {
                "src": "course/en/images/01_instagram_community/stockphoto_61535018_icon.jpg",
                "srcHover":"course/en/images/01_instagram_community/stockphoto_61535018_icon.jpg",
                "srcVisited":"course/en/images/01_instagram_community/stockphoto_61535018_icon.jpg",
                "alt": "",
                "title": ""
            },
             "_itemGraphic": {
                "src": "course/en/images/01_instagram_community/stockphoto_61535018_icon.jpg",
                "alt": "alt text"
            }
        },
        {
            "title": "Global community ",
            "body": "The Instagram community is truly global in scope, with 80%+ of the community outside of the US.<br><br><cite>Instagram Internal Data, Nov 2016</cite>",
            "_graphic": {
                "src": "course/en/images/01_instagram_community/InstagramforBusiness.png",
                "srcHover":"course/en/images/01_instagram_community/InstagramforBusiness.png",
                "srcVisited":"course/en/images/01_instagram_community/InstagramforBusiness.png",
                "alt": "",
                "title": ""
            },
             "_itemGraphic": {
                "src": "course/en/images/01_instagram_community/InstagramforBusiness.png",
                "alt": ""
            }
        }
        ]
    }